{
  "success": true,
  "data": [
    {
      "title": "Software Ninja",
      "business_name": "Based Software Inc.",
      "city": "Phoenix",
      "region": "Arizona",
      "posted_datetime": "2023-03-30T19:40:51.978Z",
      "job_summary": "<p>We are currently seeking a Senior Engineer with experience in bulk email delivery and infrastructure to join our team and help us enhance our platform.</p><p>Position Overview: As a Senior Engineer for Bulk Email Delivery and Infrastructure, you will be responsible for designing, developing, testing, and deploying scalable and reliable email delivery infrastructure that can handle large volumes of email traffic. You will work closely with our development team to ensure that our email platform remains fast, secure, and efficient while meeting the evolving needs of our clients.</p>"
    },
    {
      "title": "Assistant to the Regional Manager",
      "business_name": "Dunder Mifflin",
      "city": "Scranton",
      "region": "Pennsylvania",
      "posted_datetime": "2023-03-24T19:40:51.978Z",
      "job_summary": "<p>Our company is seeking an Assistant to the Regional Manager to join our team. This individual will report to the Regional Manager and be responsible for assisting with the day-to-day operations of the office. The ideal candidate will be a self-starter with strong organizational skills and attention to detail.</p>"
    },
    {
      "title": "Garbage Man 2000",
      "business_name": "Megacorp Inc.",
      "city": "Phoenix",
      "region": "Arizona",
      "posted_datetime": "2023-03-30T19:40:51.978Z",
      "job_summary": "<p>Our waste management company is seeking a Garbage Collector to join our team. The Garbage Collector will be responsible for collecting and disposing of residential and commercial waste in a safe and efficient manner. The ideal candidate will be physically fit, have a strong work ethic, and a commitment to safety. Responsibilities include collecting and disposing of waste from residential and commercial properties in a safe and efficient manner, operating garbage trucks and other equipment in accordance with company policies and procedures, and sorting recyclable materials from non-recyclable materials.</p>"
    }
  ]
}